Place,Sex,Name,CyrillicName,BodyweightKg,Squat1Kg,Squat2Kg,Squat3Kg,Best3SquatKg,Squat4Kg,Bench1Kg,Bench2Kg,Bench3Kg,Best3BenchKg,Bench4Kg,Deadlift1Kg,Deadlift2Kg,Deadlift3Kg,Best3DeadliftKg,Deadlift4Kg,TotalKg,WeightClassKg,Event,Equipment,Tested,Division,Age,BirthDate
1,M,Igor Chistyakov,Игорь Чистяков,65,115,,,115,,105,110,,110,,110,120,,120,,345,67.5,SBD,Raw,Yes,Amateur Masters 50-54,52,1965-05-27
1,M,Mikhail Evstigneev,Михаил Евстигнеев,106,225,235,240,240,,175,185,-190,185,,240,255,-265,255,,680,110,SBD,Raw,Yes,Amateur Open,41,1976-06-21
1,M,Vadim Petriv,Вадим Петрив,112.3,230,240,250,250,,150,160,165,165,,230,240,250,250,,665,125,SBD,Raw,Yes,Amateur Open,35,1981-12-29
1,M,Ivan Surov,Иван Суров,80.8,-130,130,-140,130,,100,-105,-105,100,,145,155,165,165,,395,82.5,SBD,Wraps,Yes,Amateur Open,38,1979-07-13
1,F,Kristina Maksimova,Кристина Максимова,48,,,,,,40,-45,47.5,47.5,,,,,,,47.5,48,B,Raw,Yes,Amateur Open,35,1982-08-16
2,F,Aliya Kramarenko,Алия Крамаренко,48,,,,,,30,32.5,-35,32.5,,,,,,,32.5,48,B,Raw,Yes,Amateur Open,37,1979-10-19
1,F,Anna Melnikova,Анна Мельникова,52,,,,,,45,-50,-50,45,,,,,,,45,52,B,Raw,Yes,Amateur Teen 15-19,18,1999-02-02
1,F,Elena Korovkina,Елена Коровкина,54.8,,,,,,55,60,65,65,,,,,,,65,56,B,Raw,Yes,Amateur Open,25,1992-06-01
2,F,Lyudmila Sokolova,Людмила Соколова,53.8,,,,,,35,40,45,45,,,,,,,45,56,B,Raw,Yes,Amateur Open,24,1992-09-29
1,F,Olga Krichmar,Ольга Кричмар,59.8,,,,,,67.5,72.5,75,75,,,,,,,75,60,B,Raw,Yes,Amateur Open,35,1982-03-09
1,F,Tatyana Zhatkina,Татьяна Жаткина,74.7,,,,,,40,42.5,-45,42.5,,,,,,,42.5,75,B,Raw,Yes,Amateur Open,26,1991-01-16
1,F,Margarita Deych,Маргарита Дейч,68.5,,,,,,35,-37.5,,35,,,,,,,35,75,B,Raw,Yes,Amateur Masters 40-44,44,1972-10-30
DQ,M,Nadyr Mansurov,Надыр Мансуров,59.5,,,,,,-60,-80,-100,,,,,,,,,60,B,Raw,Yes,Amateur Juniors 20-23,20,1996-10-18
1,M,Ivan Burmistrov,Иван Бурмистров,64.5,,,,,,60,65,70,70,,,,,,,70,67.5,B,Raw,Yes,Amateur Teen 15-19,15,2001-09-10
1,M,Yakov Pastukh,Яков Пастух,65,,,,,,120,125,,125,,,,,,,125,67.5,B,Raw,Yes,Amateur Open,38,1979-02-26
2,M,Igor Chistyakov,Игорь Чистяков,65,,,,,,105,110,,110,,,,,,,110,67.5,B,Raw,Yes,Amateur Open,52,1965-05-27
1,M,Igor Chistyakov,Игорь Чистяков,65,,,,,,105,110,,110,,,,,,,110,67.5,B,Raw,Yes,Amateur Masters 50-54,52,1965-05-27
1,M,Roman Shuvalov,Роман Шувалов,74.6,,,,,,130,137.5,140,140,,,,,,,140,75,B,Raw,Yes,Amateur Open,36,1981-08-07
2,M,Viktor Kopaev,Виктор Копаев,69,,,,,,-130,-137.5,137.5,137.5,,,,,,,137.5,75,B,Raw,Yes,Amateur Open,27,1990-02-02
3,M,Aleksandr Nikolaev,Александр Николаев,71.6,,,,,,130,-137.5,137.5,137.5,,,,,,,137.5,75,B,Raw,Yes,Amateur Open,29,1988-04-06
1,M,Sergey Kuznetsov,Сергей Кузнецов,79.6,,,,,,120,130,135,135,,,,,,,135,82.5,B,Raw,Yes,Amateur Open,32,1984-10-07
2,M,Elnur Aliev,Эльнур Алиев,81.1,,,,,,105,115,130,130,,,,,,,130,82.5,B,Raw,Yes,Amateur Open,35,1982-03-09
3,M,Evgeniy Rakitin,Евгений Ракитин,80.2,,,,,,-70,80,-110,80,,,,,,,80,82.5,B,Raw,Yes,Amateur Open,34,1982-11-15
DQ,M,Aleksandr Semenov,Александр Семенов,79.5,,,,,,-115,-115,-115,,,,,,,,,82.5,B,Raw,Yes,Amateur Masters 40-44,40,1977-02-03
1,M,Sergey Sinyashchokiy,Сергей Синящокий,82.4,,,,,,125,130,135,135,,,,,,,135,82.5,B,Raw,Yes,Amateur Masters 45-49,46,1970-10-30
1,M,Nikolay Lubkov,Николай Лубков,80.4,,,,,,-115,115,-130,115,,,,,,,115,82.5,B,Raw,Yes,Amateur Masters 55-59,57,1959-09-10
1,M,Denis Maklakov,Денис Маклаков,88.8,,,,,,-120,125,-135,125,,,,,,,125,90,B,Raw,Yes,Amateur Juniors 20-23,20,1997-05-02
1,M,Oleg Dymov,Олег Дымов,88.3,,,,,,145,155,-160,155,,,,,,,155,90,B,Raw,Yes,Amateur Masters 45-49,47,1970-05-02
1,M,Aleksandr Klimanov,Александр Климанов,95,,,,,,-105,107.5,-112.5,107.5,,,,,,,107.5,100,B,Raw,Yes,Amateur Juniors 20-23,21,1996-02-06
DQ,M,Aleksandr Stepanov,Александр Степанов,93.3,,,,,,-110,-115,-115,,,,,,,,,100,B,Raw,Yes,Amateur Juniors 20-23,22,1994-12-05
1,M,Aleksey Nepryakhin,Алексей Непряхин,106.7,,,,,,160,-165,-167.5,160,,,,,,,160,110,B,Raw,Yes,Amateur Masters 40-44,42,1975-02-03
1,M,Egor Perov,Егор Перов,110.9,,,,,,-162.5,162.5,-167.5,162.5,,,,,,,162.5,125,B,Raw,Yes,Amateur Juniors 20-23,22,1994-10-16
1,M,Egor Perov,Егор Перов,110.9,,,,,,-162.5,162.5,-167.5,162.5,,,,,,,162.5,125,B,Raw,Yes,Amateur Open,22,1994-10-16
1,M,Vyacheslav Khodakovskiy,Вячеслав Ходаковский,125.8,,,,,,140,145,150,150,,,,,,,150,140,B,Raw,Yes,Amateur Open,31,1986-09-08
1,F,Anna Melnikova,Анна Мельникова,52,,,,,,,,,,,90,-100,-100,90,,90,52,D,Raw,Yes,Amateur Open,18,1999-02-02
1,F,Lyudmila Sokolova,Людмила Соколова,53.8,,,,,,,,,,,70,80,92.5,92.5,,92.5,56,D,Raw,Yes,Amateur Open,24,1992-09-29
1,F,Tatyana Zhatkina,Татьяна Жаткина,74.7,,,,,,,,,,,85,92.5,97.5,97.5,,97.5,75,D,Raw,Yes,Amateur Open,26,1991-01-16
1,M,Ivan Burmistrov,Иван Бурмистров,64.5,,,,,,,,,,,97.5,105,112.5,112.5,,112.5,67.5,D,Raw,Yes,Amateur Teen 15-19,15,2001-09-10
1,M,Igor Chistyakov,Игорь Чистяков,65,,,,,,,,,,,110,120,,120,,120,67.5,D,Raw,Yes,Amateur Masters 50-54,52,1965-05-27
1,M,Rodion Tarasov,Родион Тарасов,71.8,,,,,,,,,,,200,210,-222.5,210,,210,75,D,Raw,Yes,Amateur Open,18,1999-03-12
2,M,Sergey Artyushenko,Сергей Артюшенко,74,,,,,,,,,,,190,-210,210,210,,210,75,D,Raw,Yes,Amateur Open,37,1980-03-31
1,M,Oleg Pavlushin,Олег Павлушин,72.9,,,,,,,,,,,-160,160,-167.5,160,,160,75,D,Raw,Yes,Amateur Masters 40-44,43,1974-03-07
1,M,Aleksandr Klimanov,Александр Климанов,82,,,,,,,,,,,190,-200,-215,190,,190,82.5,D,Raw,Yes,Amateur Juniors 20-23,21,1996-02-06
1,M,Sergey Konstantinov,Сергей Константинов,79.8,,,,,,,,,,,-170,170,185,185,,185,82.5,D,Raw,Yes,Amateur Open,37,1979-10-12
2,M,Elnur Aliev,Эльнур Алиев,81.1,,,,,,,,,,,160,180,-192.5,180,,180,82.5,D,Raw,Yes,Amateur Open,35,1982-03-09
1,M,Viktor Skokin,Виктор Скокин,79,,,,,,,,,,,200,210,,210,,210,82.5,D,Raw,Yes,Amateur Masters 60-64,60,1957-07-20
1,M,Denis Maklakov,Денис Маклаков,88.8,,,,,,,,,,,192.5,205,215,215,,215,90,D,Raw,Yes,Amateur Juniors 20-23,20,1997-05-02
1,M,Andrey Kozlov,Андрей Козлов,99.4,,,,,,,,,,,215,225,-230,225,,225,100,D,Raw,Yes,Amateur Open,47,1969-10-24
1,M,Vyacheslav Varlamov,Вячеслав Варламов,88.8,,,,,,,,,,,240,257.5,265,265,,265,90,D,Single-ply,Yes,Amateur Open,32,1985-03-18
1,M,Dmitriy Vaskovskiy,Дмитрий Васьковский,90,-200,-210,210,210,,-125,-135,135,135,,190,205,-220,205,,550,90,SBD,Raw,No,Pro Juniors 20-23,23,1994-08-22
DQ,M,Aleksandr Bazylev,Александр Базылев,86.5,-150,-150,-150,,,-50,,,,,-100,,,,,,90,SBD,Raw,No,Pro Open,37,1980-05-14
1,M,Ivan Popov,Иван Попов,96.7,210,-230,240,240,,-155,167.5,-180,167.5,,230,240,-250,240,,647.5,100,SBD,Raw,No,Pro Open,26,1990-12-18
1,M,Roman Atanov,Роман Атанов,120.5,-300,310,320,320,,195,202.5,207.5,207.5,,280,300,320,320,,847.5,125,SBD,Raw,No,Pro Open,44,1973-08-15
1,M,Aleksandr Rumyantsev,Александр Румянцев,64.5,,,,,,80,-87.5,87.5,87.5,,,,,,,87.5,67.5,B,Raw,No,Pro Open,26,1991-06-26
1,M,Vladimir Berdnikov,Владимир Бердников,74.2,,,,,,-125,125,130,130,,,,,,,130,75,B,Raw,No,Pro Open,30,1987-02-25
1,M,Andrey Mitrochenko,Андрей Митроченко,81.5,,,,,,135,140,145,145,,,,,,,145,82.5,B,Raw,No,Pro Masters 40-44,40,1976-11-19
1,M,Sergey Timchenko,Сергей Тимченко,86.5,,,,,,202.5,210,-215,210,,,,,,,210,90,B,Raw,No,Pro Open,37,1979-12-23
2,M,Aleksandr Bazylev,Александр Базылев,86.5,,,,,,-105,-105,105,105,,,,,,,105,90,B,Raw,No,Pro Open,37,1980-05-14
1,M,Rustam Bogoutdinov,Рустам Богоутдинов,91.7,,,,,,160,167.5,175,175,,,,,,,175,100,B,Raw,No,Pro Open,35,1982-06-05
2,M,Vladimir Krykh,Владимир Крых,97.9,,,,,,140,145,-150,145,,,,,,,145,100,B,Raw,No,Pro Open,36,1981-08-03
1,M,Ivan Karvovskiy,Иван Карвовский,97.9,,,,,,-155,162.5,167.5,167.5,,,,,,,167.5,100,B,Raw,No,Pro Masters 50-54,50,1967-02-22
DQ,M,Marat Nekrasov,Марат Некрасов,109,,,,,,-172.5,-172.5,-172.5,,,,,,,,,110,B,Raw,No,Pro Open,27,1990-08-14
1,M,Nikolay Kotov,Николай Котов,102.9,,,,,,160,167.5,-172.5,167.5,,,,,,,167.5,110,B,Raw,No,Pro Masters 40-44,42,1975-07-12
1,F,Ekaterina Taskaeva,Екатерина Таскаева,59.3,,,,,,-120,-120,120,120,,,,,,,120,60,B,Single-ply,No,Pro Juniors 20-23,23,1993-12-22
1,F,Ekaterina Koveshnikova,Екатерина Ковешникова,48.4,,,,,,,,,,,60,-70,75,75,,75,52,D,Raw,No,Pro Open,40,1977-06-21
DQ,F,Ekaterina Selina,Екатерина Селина,72.3,,,,,,,,,,,-100,,,,,,75,D,Raw,No,Pro Open,25,1992-03-03
1,F,Anastasiya Yakovleva,Анастасия Яковлева,89.3,,,,,,,,,,,85,95,105,105,,105,90,D,Raw,No,Pro Open,22,1994-12-30
1,M,Yuriy Chernykh,Юрий Черных,78,,,,,,,,,,,-220,225,240,240,,240,82.5,D,Raw,No,Pro Juniors 20-23,22,1995-01-29
1,M,Sergey Zotov,Сергей Зотов,80.6,,,,,,,,,,,200,210,215,215,,215,82.5,D,Raw,No,Pro Open,30,1987-05-11
2,M,Ruslan Zinnatov,Руслан Зиннатов,80.6,,,,,,,,,,,210,-217.5,,210,,210,82.5,D,Raw,No,Pro Open,30,1986-12-21
1,M,Aleksandr Bazylev,Александр Базылев,86.5,,,,,,,,,,,150,165,180,180,,180,90,D,Raw,No,Pro Open,37,1980-05-14
1,M,Artem Bartenev,Артем Бартенев,119.1,,,,,,,,,,,200,215,225,225,,225,125,D,Raw,No,Pro Open,31,1986-07-17
1,M,Aleksey Grigorev,Алексей Григорьев,111,,,,,,,,,,,240,250,257.5,257.5,,257.5,125,D,Raw,No,Pro Masters 40-44,42,1975-02-04
1,F,Kamilla Kozhevnikova,Камилла Кожевникова,65.5,,,,,,,,,,,85,95,-100,95,,95,67.5,D,Single-ply,No,Pro Open,31,1986-05-05
1,M,Anatoliy Gerasimenko,Анатолий Герасименко,94.3,,,,,,,,,,,160,-165,165,165,,165,100,D,Single-ply,No,Pro Open,30,1987-08-02
