Place,Name,CyrillicName,BirthDate,BodyweightKg,Squat1Kg,Squat2Kg,Squat3Kg,Squat4Kg,Bench1Kg,Bench2Kg,Bench3Kg,Bench4Kg,Deadlift1Kg,Deadlift2Kg,Deadlift3Kg,Deadlift4Kg,TotalKg,WeightClassKg,Division,Sex,Event,Equipment,Tested,Best3SquatKg,Best3BenchKg,Best3DeadliftKg,BirthYear
1,Makar Semkovich,Макар Семкович,2010-02-19,55.75,42.5,47.5,52.5,,27.5,32.5,35,,50,57.5,62.5,,150,56,Pro Youth 10,M,SBD,Wraps,No,52.5,35,62.5,2010
1,Daniil Matvienko,Данііл Матвієнко,2007-12-04,46.35,60,65,67.5,,40,42.5,45,,90,95,97.5,,210,48,Pro Sub-Teen 11-12,M,SBD,Wraps,No,67.5,45,97.5,2007
1,Danilo Talash,Данило Талаш,2004-10-24,81.3,120,130,-140,,90,100,,,160,170,-175,,400,82.5,Pro Teen 13-15,M,SBD,Wraps,No,130,100,170,2004
1,Denis Sheludko,Денис Шелудько,2003-07-08,73.4,135,145,-150,,90,95,-100,,140,150,160,,400,75,Pro Teen 16-17,M,SBD,Wraps,No,145,95,160,2003
1,Igor Voytenko,Ігор Войтенко,2003-06-30,79.25,160,170,,,90,95,-100,,180,190,200,,465,82.5,Pro Teen 16-17,M,SBD,Wraps,No,170,95,200,2003
1,Vladislav Filonenko,Владислав Філоненко,2004-12-07,71.35,90,100,105,,60,70,-80,,100,120,130,,305,75,Pro Teen 18-19,M,SBD,Wraps,No,105,70,130,2004
1,Roman Moshura,Роман Мошура,1998-08-22,71.2,155,165,-170,,95,102.5,105,,155,165,170,,440,75,Pro Juniors 20-23,M,SBD,Wraps,No,165,105,170,1998
1,Vasil Pavlishak,Василь Павлишак,1997-05-20,79.35,170,-182.5,-182.5,,105,110,112.5,,205,210,-212.5,,492.5,82.5,Pro Juniors 20-23,M,SBD,Wraps,No,170,112.5,210,1997
1,Nazariy Levitskiy,Назарій Левицький,2000-04-28,87.65,195,205,-215,,135,140,-142.5,,215,230,-240,,575,90,Pro Juniors 20-23,M,SBD,Wraps,No,205,140,230,2000
1,Roman Semko,Роман Семко,2000-03-19,94,215,-225,225,,105,-115,-115,,230,240,-250,,570,100,Pro Juniors 20-23,M,SBD,Wraps,No,225,105,240,2000
2,Petro Kraynik,Петро Крайник,1998-08-19,99.35,190,200,210,,105,115,125,,222.5,-230,230,,565,100,Pro Juniors 20-23,M,SBD,Wraps,No,210,125,230,1998
3,Kostyantin Nechaev,Костянтин Нечаєв,1997-12-09,98.2,-180,180,190,,100,110,-115,,160,170,-180,,470,100,Pro Juniors 20-23,M,SBD,Wraps,No,190,110,170,1997
1,Bogdan Malginov,Богдан Мальгінов,1998-01-19,123.2,255,265,280,,135,150,165,,210,245,255,,700,125,Pro Juniors 20-23,M,SBD,Wraps,No,280,165,255,1998
1,Makar Semkovich,Макар Семкович,2010-02-19,55.75,42.5,47.5,52.5,,27.5,32.5,35,,50,57.5,62.5,,150,56,Pro Open,M,SBD,Wraps,No,52.5,35,62.5,2010
1,Andriy Tsaran,Андрій Царан,1989-08-31,72.6,160,165,-167.5,,110,115,120,,185,200,215,,500,75,Pro Open,M,SBD,Wraps,No,165,120,215,1989
2,Roman Moshura,Роман Мошура,1998-08-22,71.2,155,165,-170,,95,102.5,105,,155,165,170,,440,75,Pro Open,M,SBD,Wraps,No,165,105,170,1998
1,Volodimir Rudakevich,Володимир Рудакевич,1988-06-15,79.9,180,200,210,,135,-140,-140,,200,225,235,,580,82.5,Pro Open,M,SBD,Wraps,No,210,135,235,1988
2,Bogdan Pavlishak,Богдан Павлишак,1995-04-24,78.8,182.5,190,200,,107.5,112.5,115,,215,225,235,,550,82.5,Pro Open,M,SBD,Wraps,No,200,115,235,1995
3,Oleg Skripka,Олег Скрипка,1992-06-24,81.6,150,160,-175,,95,105,-110,,202.5,215,230,,495,82.5,Pro Open,M,SBD,Wraps,No,160,105,230,1992
1,Boris Stashuk,Борис Сташук,1985-10-29,88.05,230,250,260,,155,170,-180,,250,275,282.5,,712.5,90,Pro Open,M,SBD,Wraps,No,260,170,282.5,1985
3,Pavlo Semkovich,Павло Семкович,1980-05-12,88.2,210,220,227.5,,145,152.5,-155,,220,230,-240,,610,90,Pro Open,M,SBD,Wraps,No,227.5,152.5,230,1980
4,Ruslan Kornutich,Руслан Корнутич,1989-07-18,87.2,-230,247.5,-252.5,,125,-130,-130,,180,195,210,,582.5,90,Pro Open,M,SBD,Wraps,No,247.5,125,210,1989
5,Oleksandr Tsaran,Олександр Царан,1980-06-24,87.25,170,180,-185,,130,135,140,,175,185,200,,520,90,Pro Open,M,SBD,Wraps,No,180,140,200,1980
1,Oleg Kulik,Олег Кулик,1995-04-09,94.4,250,-260,-260,,-140,145,-150,,250,260,270,,665,100,Pro Open,M,SBD,Wraps,No,250,145,270,1995
2,Stepan Bilusyak,Степан Білусяк,1973-10-04,96.3,190,200,-210,,150,160,-165,,210,222.5,232.5,,592.5,100,Pro Open,M,SBD,Wraps,No,200,160,232.5,1973
3,Sergiy Pashko,Сергій Пашко,1973-04-06,97.1,210,220,227.5,,140,-145,-145,,210,220,-227.5,,587.5,100,Pro Open,M,SBD,Wraps,No,227.5,140,220,1973
4,Roman Semko,Роман Семко,2000-03-19,94,215,-225,225,,105,-115,-115,,230,240,-250,,570,100,Pro Open,M,SBD,Wraps,No,225,105,240,2000
5,Petro Kraynik,Петро Крайник,1998-08-19,99.35,190,200,210,,105,115,125,,222.5,-230,230,,565,100,Pro Open,M,SBD,Wraps,No,210,125,230,1998
1,Viktor Melnik,Віктор Мельник,1994-08-16,108.5,215,-225,225,,130,137.5,142.5,,230,-260,-260,,597.5,110,Pro Open,M,SBD,Wraps,No,225,142.5,230,1994
1,Boris Stashuk,Борис Сташук,1985-10-29,88.05,230,250,260,,155,170,-180,,250,275,282.5,,712.5,90,Pro Submasters 33-39,M,SBD,Wraps,No,260,170,282.5,1985
1,Pavlo Semkovich,Павло Семкович,1980-05-12,88.2,210,220,227.5,,145,152.5,-155,,220,230,-240,,610,90,Pro Masters 40-44,M,SBD,Wraps,No,227.5,152.5,230,1980
2,Viktor Ustimchuk,Віктор Устимчук,1977-06-19,89,125,135,-145,,100,107.5,-112.5,,180,195,200,,442.5,90,Pro Masters 40-44,M,SBD,Wraps,No,135,107.5,200,1977
1,Stepan Bilusyak,Степан Білусяк,1973-10-04,96.3,190,200,-210,,150,160,-165,,210,222.5,232.5,,592.5,100,Pro Masters 45-49,M,SBD,Wraps,No,200,160,232.5,1973
2,Sergiy Pashko,Сергій Пашко,1973-04-06,97.1,210,220,227.5,,140,-145,-145,,210,220,-227.5,,587.5,100,Pro Masters 45-49,M,SBD,Wraps,No,227.5,140,220,1973
1,Alina Kozak,Аліна Козак,2004-09-23,55.6,40,50,55,,20,22.5,25,,50,60,62.5,,142.5,56,Pro Teen 13-15,F,SBD,Wraps,No,55,25,62.5,2004
DQ,Karina Khanagyan,Каріна Ханагян,1997-07-06,59.5,-120,-120,-120,,-55,-60,-60,,-120,-130,-140,,,60,Pro Juniors 20-23,F,SBD,Wraps,No,,,,1997
1,Anastasiya Skidan,Анастасія Скидан,1989-12-01,65.2,90,-95,-95,,-52.5,52.5,55,,105,110,-115,,255,67.5,Pro Open,F,SBD,Wraps,No,90,55,110,1989
DQ,Armine Sargsyan,Арміне Саргсян,1981-02-20,57.5,90,95,100,,-65,-65,-65,,-120,,,,,60,Pro Submasters 33-39,F,SBD,Wraps,No,100,,,1981
1,Alla Osovitska,Алла Осовицька,1984-11-09,66,-60,60,65,,35,40,-45,,90,95,-100,,200,67.5,Pro Submasters 33-39,F,SBD,Wraps,No,65,40,95,1984
DQ,Vasil Melnik,Василь Мельник,1999-09-28,80.7,-150,,,,-120,,,,-160,,,,,82.5,Pro Juniors 20-23,M,SBD,Wraps,No,,,,1999
1,Ruslan Ruban,Руслан Рубан,1990-07-09,74.2,-250,-260,260,,-165,175,-185.5,,255,265,270,,705,75,Pro Open,M,SBD,Wraps,No,260,175,270,1990
1,Oleksandr Statnik,Олександр Статник,1988-06-05,89,200,215,225,,150,160,170,,240,250,,,645,90,Pro Open,M,SBD,Wraps,No,225,170,250,1988
1,Oleksandr Burda,Олександр Бурда,1988-08-17,99.7,280,-290,290,,180,190,-200,,300,-320,-320,,780,100,Pro Open,M,SBD,Wraps,No,290,190,300,1988
2,Vitaliy Stets,Віталій Стець,1998-09-08,99,260,-280,280,,170,-177.5,-177.5,,-305,305,-315,,755,100,Pro Open,M,SBD,Wraps,No,280,170,305,1998
3,Stepan Fedinyak,Степан Фединяк,1992-09-03,95.3,222.5,240,245,,-155,162.5,165,,242.5,252.5,260,,670,100,Pro Open,M,SBD,Wraps,No,245,165,260,1992
1,Bogdan Khudak,Богдан Худак,1984-10-28,107.8,230,240,-250,,150,155,-160,,250,260,265,,660,110,Pro Open,M,SBD,Wraps,No,240,155,265,1984
1,Igor Motruk,Ігор Мотрук,1983-12-27,126,-361,-361,361,,180,190,-200,,300,320,-346,,871,140,Pro Open,M,SBD,Wraps,No,361,190,320,1983
1,Nazariy Levitskiy,Назарій Левицький,2000-04-28,87.65,,,,,135,140,-142.5,,215,230,-240,,370,90,Pro Juniors 20-23,M,BD,Raw,No,,140,230,2000
2,Roman Vinnik,Роман Винник,1998-03-31,86.05,,,,,110,120,-125,,160,180,210,,330,90,Pro Juniors 20-23,M,BD,Raw,No,,120,210,1998
1,Kostyantin Nechaev,Костянтин Нечаєв,1997-12-09,98.2,,,,,100,110,-115,,160,170,-180,,280,100,Pro Juniors 20-23,M,BD,Raw,No,,110,170,1997
1,Bogdan Petrinyak,Богдан Петриняк,1996-04-07,58.7,,,,,60,65,70,,110,125,140,,210,60,Pro Open,M,BD,Raw,No,,70,140,1996
1,Boris Stashuk,Борис Сташук,1985-10-29,88.05,,,,,155,170,-180,,250,275,282.5,,452.5,90,Pro Open,M,BD,Raw,No,,170,282.5,1985
3,Roman Vinnik,Роман Винник,1998-03-31,86.05,,,,,110,120,-125,,160,180,210,,330,90,Pro Open,M,BD,Raw,No,,120,210,1998
1,Oleksandr Kisilchuk,Олександр Кисільчук,1993-08-17,101,,,,,125,135,-140,,165,175,-182.5,,310,110,Pro Open,M,BD,Raw,No,,135,175,1993
1,Vitaliy Konarchuk,Віталій Конарчук,1975-05-21,88.55,,,,,-125,125,-130,,185,195,200,,325,90,Pro Masters 40-44,M,BD,Raw,No,,125,200,1975
1,Oleksandr Ploskiy,Олександр Плоский,1974-08-30,87.2,,,,,145,150,-152.5,,-195,195,200,,350,90,Pro Masters 45-49,M,BD,Raw,No,,150,200,1974
1,Vitaliy Filonenko,Віталій Філоненко,1964-05-18,104.25,,,,,130,-142.5,-142.5,,185,202.5,207.5,,337.5,110,Pro Masters 55-59,M,BD,Raw,No,,130,207.5,1964
1,Yuriy Kobzey,Юрій Кобзей,2000-05-03,67.5,,,,,90,95,-100,,140,150,160,,255,67.5,Pro Military/Fire/Police,M,BD,Raw,No,,95,160,2000
1,Vitaliy Kotelko,Віталій Котелко,2000-04-04,81.9,,,,,110,122.5,-130,,165,180,-200,,302.5,82.5,Pro Military/Fire/Police,M,BD,Raw,No,,122.5,180,2000
1,Oleksandr Ploskiy,Олександр Плоский,1974-08-30,87.2,,,,,145,150,-152.5,,-195,195,200,,350,90,Pro Military/Fire/Police,M,BD,Raw,No,,150,200,1974
1,Vitaliy Filonenko,Віталій Філоненко,1964-05-18,104.25,,,,,130,-142.5,-142.5,,185,202.5,207.5,,337.5,110,Pro Military/Fire/Police,M,BD,Raw,No,,130,207.5,1964
1,Karina Khanagyan,Каріна Ханагян,1997-07-06,59.5,,,,,55,-60,60,,120,130,140,,200,60,Pro Juniors 20-23,F,BD,Raw,No,,60,140,1997
1,Marina Matvienko,Марина Матвієнко,1989-03-17,59.35,,,,,75,77.5,80,,140,150,,,230,60,Pro Open,F,BD,Raw,No,,80,150,1989
1,Svitlana Oleksin,Світлана Олексин,1986-04-29,66.4,,,,,47.5,-50,-50,,100,110,-117.5,,157.5,67.5,Pro Open,F,BD,Raw,No,,47.5,110,1986
1,Svitlana Oleksin,Світлана Олексин,1986-04-29,66.4,,,,,47.5,-50,-50,,100,110,-117.5,,157.5,67.5,Pro Submasters 33-39,F,BD,Raw,No,,47.5,110,1986
1,Artem Bondarenko,Артем Бондаренко,1987-11-10,92.7,,,,,70,80,85,,130,140,150,,235,100,Pro Open,M,BD,Raw,No,,85,150,1987
1,Mikola Matvienko,Микола Матвієнко,1984-12-21,108.55,,,,,155,165,175,,200,230,-260,,405,110,Pro Open,M,BD,Raw,No,,175,230,1984
2,Artur Maslovets,Артур Масловець,1988-09-29,108,,,,,-140,140,-155,,200,240,-265,,380,110,Pro Open,M,BD,Raw,No,,140,240,1988
1,Mikola Matvienko,Микола Матвієнко,1984-12-21,108.55,,,,,155,165,175,,200,230,-260,,405,110,Pro Submasters 33-39,M,BD,Raw,No,,175,230,1984
1,Stanislav Gurza,Станіслав Гурза,1992-09-05,89.2,,,,,-115,115,130,,160,190,-217.5,,320,90,Pro Military/Fire/Police,M,BD,Raw,No,,130,190,1992
2,Roman Semko,Роман Семко,2000-03-19,94,,,,,115,-125,125,,,,,,125,100,Pro Juniors 20-23,M,B,Raw,No,,125,,2000
1,Kostyantin Nechaev,Костянтин Нечаєв,1997-12-09,98.2,,,,,-180,180,190,,,,,,190,100,Pro Juniors 20-23,M,B,Raw,No,,190,,1997
1,Ruslan Kornutich,Руслан Корнутич,1989-07-18,87.2,,,,,-230,247.5,-252.5,,,,,,247.5,90,Pro Open,M,B,Raw,No,,247.5,,1989
1,Oleg Kulik,Олег Кулик,1995-04-09,94.4,,,,,250,-260,-260,,,,,,250,100,Pro Open,M,B,Raw,No,,250,,1995
1,Viktor Ustimchuk,Віктор Устимчук,1977-06-19,89,,,,,125,135,-145,,,,,,135,90,Pro Masters 40-44,M,B,Raw,No,,135,,1977
1,Volodimir Galiga,Володимир Галига,2005-08-16,56,,,,,57.5,60,62.5,,,,,,62.5,56,Pro Teen 13-15,M,B,Raw,No,,62.5,,2005
1,Maksim Bugir,Максим Бугір,2005-02-01,88,,,,,97.5,105,112.5,,,,,,112.5,90,Pro Teen 13-15,M,B,Raw,No,,112.5,,2005
1,Oleg Mikhalskiy,Олег Михальський,2004-04-06,59.3,,,,,92.5,-97.5,97.5,,,,,,97.5,60,Pro Teen 16-17,M,B,Raw,No,,97.5,,2004
1,Dmitro Melnik,Дмитро Мельник,2003-09-22,67.4,,,,,100,105,110,,,,,,110,67.5,Pro Teen 16-17,M,B,Raw,No,,110,,2003
2,Yuriy Mironyuk,Юрій Миронюк,2004-04-25,66.8,,,,,-72.5,72.5,82.5,,,,,,82.5,67.5,Pro Teen 16-17,M,B,Raw,No,,82.5,,2004
DQ,Mikhaylo Sapronov,Михайло Сапронов,2003-11-21,82.05,,,,,-85,-85,-85,,,,,,,82.5,Pro Teen 16-17,M,B,Raw,No,,,,2003
1,Vladislav Olenchuk,Владислав Оленчук,2001-05-15,77.65,,,,,100,105,110,,,,,,110,82.5,Pro Teen 18-19,M,B,Raw,No,,110,,2001
1,Roman Vinnik,Роман Винник,1998-03-31,86.05,,,,,110,120,-125,,,,,,120,90,Pro Juniors 20-23,M,B,Raw,No,,120,,1998
1,Volodimir Melnik,Володимир Мельник,1993-07-19,72.2,,,,,125,130,135,,,,,,135,75,Pro Open,M,B,Raw,No,,135,,1993
1,Yuriy Gamernik,Юрій Гамерник,1990-03-20,80.5,,,,,120,127.5,132.5,,,,,,132.5,82.5,Pro Open,M,B,Raw,No,,132.5,,1990
2,Ivan Zelinskiy,Іван Зелінський,1995-01-18,80.6,,,,,90,100,102.5,,,,,,102.5,82.5,Pro Open,M,B,Raw,No,,102.5,,1995
1,Boris Stashuk,Борис Сташук,1985-10-29,88.05,,,,,155,170,-180,,,,,,170,90,Pro Open,M,B,Raw,No,,170,,1985
2,Anatoliy Gulita,Анатолій Гуліта,1972-05-28,88.6,,,,,150,157.5,-160,,,,,,157.5,90,Pro Open,M,B,Raw,No,,157.5,,1972
3,Yuriy Polishchuk #1,Юрій Поліщук,1992-08-13,89.1,,,,,140,150,157.5,,,,,,157.5,90,Pro Open,M,B,Raw,No,,157.5,,1992
1,Dmitro Mokich,Дмитро Мокич,1987-06-09,92.3,,,,,155,165,170,,,,,,170,100,Pro Open,M,B,Raw,No,,170,,1987
2,Oleksandr Nikulin,Олександр Нікулін,1983-11-29,95.2,,,,,160,165,-167.5,,,,,,165,100,Pro Open,M,B,Raw,No,,165,,1983
3,Nazariy Kovalchuk,Назарій Ковальчук,1990-02-24,97.3,,,,,110,120,-130,,,,,,120,100,Pro Open,M,B,Raw,No,,120,,1990
1,Oleksandr Kisilchuk,Олександр Кисільчук,1993-08-17,101,,,,,125,135,-140,,,,,,135,110,Pro Open,M,B,Raw,No,,135,,1993
1,Oleksandr Chigrinyuk,Олександр Чигринюк,1985-12-16,108.3,,,,,140,150,-160,,,,,,150,110,Pro Submasters 33-39,M,B,Raw,No,,150,,1985
1,Vitaliy Matviychuk,Віталій Матвійчук,1977-08-02,83.45,,,,,115,122.5,-127.5,,,,,,122.5,90,Pro Masters 40-44,M,B,Raw,No,,122.5,,1977
2,Viktor Ustimchuk,Віктор Устимчук,1977-06-19,89,,,,,100,107.5,-112.5,,,,,,107.5,90,Pro Masters 40-44,M,B,Raw,No,,107.5,,1977
1,Anatoliy Gulita,Анатолій Гуліта,1972-05-28,88.6,,,,,150,157.5,-160,,,,,,157.5,90,Pro Masters 45-49,M,B,Raw,No,,157.5,,1972
2,Oleksandr Ploskiy,Олександр Плоский,1974-08-30,87.2,,,,,145,150,-152.5,,,,,,150,90,Pro Masters 45-49,M,B,Raw,No,,150,,1974
3,Vadim Yakovenko,Вадим Яковенко,,87.65,,,,,130,135,140,,,,,,140,90,Pro Masters 45-49,M,B,Raw,No,,140,,
1,Vitaliy Filonenko,Віталій Філоненко,1964-05-18,104.25,,,,,130,-142.5,-142.5,,,,,,130,110,Pro Masters 55-59,M,B,Raw,No,,130,,1964
1,Yuriy Filonenko,Юрій Філоненко,1954-03-10,88.8,,,,,110,115,120,,,,,,120,90,Pro Masters 65-69,M,B,Raw,No,,120,,1954
1,Oleksandr Ploskiy,Олександр Плоский,1974-08-30,87.2,,,,,145,150,-152.5,,,,,,150,90,Pro Military/Fire/Police,M,B,Raw,No,,150,,1974
1,Dmitro Mokich,Дмитро Мокич,1987-06-09,92.3,,,,,155,165,170,,,,,,170,100,Pro Military/Fire/Police,M,B,Raw,No,,170,,1987
1,Vitaliy Filonenko,Віталій Філоненко,1964-05-18,104.25,,,,,130,-142.5,-142.5,,,,,,130,110,Pro Military/Fire/Police,M,B,Raw,No,,130,,1964
DQ,Darina Matvienko,Дарина Матвієнко,2001-09-12,33.2,,,,,-20,-20,-20,,,,,,,44,Pro Youth 8,F,B,Raw,No,,,,2001
1,Karina Khanagyan,Каріна Ханагян,1997-07-06,59.5,,,,,55,-60,60,,,,,,60,60,Pro Juniors 20-23,F,B,Raw,No,,60,,1997
1,Nataliya Melnichuk,Наталія Мельничук,1975-06-13,53.5,,,,,55,57.5,60,,,,,,60,56,Pro Open,F,B,Raw,No,,60,,1975
2,Irina Shchebet,Ірина Щебет,1989-04-30,54.65,,,,,52.5,55,-60,,,,,,55,56,Pro Open,F,B,Raw,No,,55,,1989
1,Lyudmila Vasilishin,Людмила Василишин,1974-07-13,58.45,,,,,57.5,60,62.5,,,,,,62.5,60,Pro Open,F,B,Raw,No,,62.5,,1974
1,Oleksandra Diordiychuk,Олександра Діордійчук,1999-12-05,63.45,,,,,60,65,-67.5,,,,,,65,67.5,Pro Open,F,B,Raw,No,,65,,1999
1,Tetyana Dudnik,Тетяна Дудник,1983-05-24,74.1,,,,,85,92.5,95,,,,,,95,75,Pro Open,F,B,Raw,No,,95,,1983
1,Marina Kravchenko,Марина Кравченко,1984-10-01,64.8,,,,,60,-65,-65,,,,,,60,67.5,Pro Submasters 33-39,F,B,Raw,No,,60,,1984
1,Tetyana Dudnik,Тетяна Дудник,1983-05-24,74.1,,,,,85,92.5,95,,,,,,95,75,Pro Submasters 33-39,F,B,Raw,No,,95,,1983
1,Nataliya Melnichuk,Наталія Мельничук,1975-06-13,53.5,,,,,55,57.5,60,,,,,,60,56,Pro Masters 40-44,F,B,Raw,No,,60,,1975
1,Lyudmila Vasilishin,Людмила Василишин,1974-07-13,58.45,,,,,57.5,60,62.5,,,,,,62.5,60,Pro Masters 45-49,F,B,Raw,No,,62.5,,1974
DQ,Sergiy Melnik,Сергій Мельник,1982-02-10,67.25,,,,,-125,-130,-130,,,,,,,67.5,Pro Open,M,B,Raw,No,,,,1982
1,Viktor Reshenin,Віктор Решенін,1996-04-03,76.85,,,,,170,-180,-187.5,,,,,,170,82.5,Pro Open,M,B,Raw,No,,170,,1996
2,Viktor Blakitniy,Віктор Блакитний,1981-04-26,81.55,,,,,150,155,157.5,,,,,,157.5,82.5,Pro Open,M,B,Raw,No,,157.5,,1981
1,Oleg Borisov,Олег Борисов,1971-05-22,98.7,,,,,200,210,-215,,,,,,210,100,Pro Open,M,B,Raw,No,,210,,1971
2,Vitaliy Zinchenko,Віталій Зінченко,1980-03-28,92.5,,,,,172.5,180,187.5,,,,,,187.5,100,Pro Open,M,B,Raw,No,,187.5,,1980
3,Viktor Rublyov,Віктор Рубльов,1975-10-26,98.6,,,,,-180,180,-190,,,,,,180,100,Pro Open,M,B,Raw,No,,180,,1975
4,Volodimir Yanev,Володимир Янєв,1983-04-16,96.85,,,,,160,165,-167.5,,,,,,165,100,Pro Open,M,B,Raw,No,,165,,1983
1,Artur Maslovets,Артур Масловець,1988-09-29,108,,,,,-140,140,-155,,,,,,140,110,Pro Open,M,B,Raw,No,,140,,1988
1,Oleg Lebedenko,Олег Лебеденко,1992-01-17,119.9,,,,,235,242.5,247.5,250.5,,,,,247.5,125,Pro Open,M,B,Raw,No,,247.5,,1992
2,Oleksandr Desyatskiy,Олександр Десяцький,1976-11-24,121.3,,,,,-180,185,190,,,,,,190,125,Pro Open,M,B,Raw,No,,190,,1976
1,Oleksandr Gensitskyy,Олександр Генсіцький,1975-12-18,154.2,,,,,230,-240,-240,,,,,,230,140+,Pro Open,M,B,Raw,No,,230,,1975
1,Viktor Blakitniy,Віктор Блакитний,1981-04-26,81.55,,,,,150,155,157.5,,,,,,157.5,82.5,Pro Submasters 33-39,M,B,Raw,No,,157.5,,1981
1,Volodimir Yanev,Володимир Янєв,1983-04-16,96.85,,,,,160,165,-167.5,,,,,,165,100,Pro Submasters 33-39,M,B,Raw,No,,165,,1983
1,Oleksandr Karnaukh,Олександр Карнаух,1980-08-15,107.2,,,,,200,-205,-205,,,,,,200,110,Pro Submasters 33-39,M,B,Raw,No,,200,,1980
1,Vitaliy Zinchenko,Віталій Зінченко,1980-03-28,92.5,,,,,172.5,180,187.5,,,,,,187.5,100,Pro Masters 40-44,M,B,Raw,No,,187.5,,1980
2,Viktor Rublyov,Віктор Рубльов,1975-10-26,98.6,,,,,-180,180,-190,,,,,,180,100,Pro Masters 40-44,M,B,Raw,No,,180,,1975
1,Oleksandr Desyatskiy,Олександр Десяцький,1976-11-24,121.3,,,,,-180,185,190,,,,,,190,125,Pro Masters 40-44,M,B,Raw,No,,190,,1976
1,Oleksandr Zhariy,Олександр Жарий,1972-06-13,63.6,,,,,110,122.5,-127.5,,,,,,122.5,67.5,Pro Masters 45-49,M,B,Raw,No,,122.5,,1972
1,Oleg Borisov,Олег Борисов,1971-05-22,98.7,,,,,200,210,-215,,,,,,210,100,Pro Masters 45-49,M,B,Raw,No,,210,,1971
2,Andriy Petruk,Андрій Петрук,1975-01-15,98.1,,,,,190,205,-210,,,,,,205,100,Pro Masters 45-49,M,B,Raw,No,,205,,1975
1,Oleksandr Gensitskyy,Олександр Генсіцький,1975-12-18,154.2,,,,,230,-240,-240,,,,,,230,140+,Pro Masters 45-49,M,B,Raw,No,,230,,1975
1,Stanislav Gurza,Станіслав Гурза,1992-09-05,89.2,,,,,-115,115,130,,,,,,130,90,Pro Military/Fire/Police,M,B,Raw,No,,130,,1992
1,Vitaliy Zinchenko,Віталій Зінченко,1980-03-28,92.5,,,,,172.5,180,187.5,,,,,,187.5,100,Pro Military/Fire/Police,M,B,Raw,No,,187.5,,1980
2,Volodimir Yanev,Володимир Янєв,1983-04-16,96.85,,,,,160,165,-167.5,,,,,,165,100,Pro Military/Fire/Police,M,B,Raw,No,,165,,1983
1,Nadiya Tishchenko,Надія Тищенко,1993-09-30,75,,,,,122.5,127.5,130,,,,,,130,75,Pro Open,F,B,Raw,No,,130,,1993
1,Roman Sagaydak,Роман Сагайдак,1983-01-20,82.4,,,,,190,-205,205,,,,,,205,82.5,Pro Open,M,B,Multi-ply,No,,205,,1983
1,Evgen Cherevatiy,Євген Череватий,1988-08-27,94.65,,,,,210,220,225,,,,,,225,100,Pro Open,M,B,Multi-ply,No,,225,,1988
1,Artem Garanzha,Артем Гаранжа,1986-08-05,114,,,,,260,280,-300,,,,,,280,125,Pro Open,M,B,Multi-ply,No,,280,,1986
1,Andriy Levitskiy,Андрій Левицький,1988-06-04,91.4,,,,,230,-250,-250,,,,,,230,100,Pro Open,M,B,Unlimited,No,,230,,1988
1,Artur Maslovets,Артур Масловець,1988-09-29,108,,,,,160,180,-200,,,,,,180,110,Pro Open,M,B,Unlimited,No,,180,,1988
1,Sergiy Dem'yanov,Сергій Дем'янов,1986-10-25,88.15,,,,,160,-170,-180,,,,,,160,90,Pro Submasters 33-39,M,B,Unlimited,No,,160,,1986
1,Andriy Levitskiy,Андрій Левицький,1988-06-04,91.4,,,,,230,-250,-250,,,,,,230,100,Pro Military/Fire/Police,M,B,Unlimited,No,,230,,1988
1,Vladislav Filonenko,Владислав Філоненко,2004-12-07,71.35,,,,,,,,,100,120,130,,130,75,Pro Teen 18-19,M,D,Raw,No,,,130,2004
1,Igor Starchenko,Ігор Старченко,2001-02-01,84,,,,,,,,,200,210,-215,,210,90,Pro Teen 18-19,M,D,Raw,No,,,210,2001
1,Vasil Pavlishak,Василь Павлишак,1997-05-20,79.35,,,,,,,,,205,210,-212.5,,210,82.5,Pro Juniors 20-23,M,D,Raw,No,,,210,1997
1,Nazariy Levitskiy,Назарій Левицький,2000-04-28,87.65,,,,,,,,,215,230,-240,,230,90,Pro Juniors 20-23,M,D,Raw,No,,,230,2000
2,Roman Vinnik,Роман Винник,1998-03-31,86.05,,,,,,,,,160,180,210,,210,90,Pro Juniors 20-23,M,D,Raw,No,,,210,1998
1,Roman Semko,Роман Семко,2000-03-19,94,,,,,,,,,230,240,-250,,240,100,Pro Juniors 20-23,M,D,Raw,No,,,240,2000
2,Nazar Klets,Назар Клец,1998-09-19,95.35,,,,,,,,,200,210,-222.5,,210,100,Pro Juniors 20-23,M,D,Raw,No,,,210,1998
1,Bogdan Malginov,Богдан Мальгінов,1998-01-19,123.2,,,,,,,,,210,245,255,,255,125,Pro Juniors 20-23,M,D,Raw,No,,,255,1998
1,Bogdan Petrinyak,Богдан Петриняк,1996-04-07,58.7,,,,,,,,,110,125,140,,140,60,Pro Open,M,D,Raw,No,,,140,1996
1,Bogdan Pavlishak,Богдан Павлишак,1995-04-24,78.8,,,,,,,,,215,225,235,,235,82.5,Pro Open,M,D,Raw,No,,,235,1995
2,Oleg Skripka,Олег Скрипка,1992-06-24,81.6,,,,,,,,,202.5,215,230,,230,82.5,Pro Open,M,D,Raw,No,,,230,1992
1,Boris Stashuk,Борис Сташук,1985-10-29,88.05,,,,,,,,,250,275,282.5,,282.5,90,Pro Open,M,D,Raw,No,,,282.5,1985
3,Pavlo Semkovich,Павло Семкович,1980-05-12,88.2,,,,,,,,,220,230,-240,,230,90,Pro Open,M,D,Raw,No,,,230,1980
4,Viktor Ustimchuk,Віктор Устимчук,1977-06-19,89,,,,,,,,,180,195,200,,200,90,Pro Open,M,D,Raw,No,,,200,1977
5,Yuriy Folvarochniy,Юрій Фольварочний,1996-05-07,89.25,,,,,,,,,190,-200,-210,,190,90,Pro Open,M,D,Raw,No,,,190,1996
1,Oleg Kulik,Олег Кулик,1995-04-09,94.4,,,,,,,,,-140,145,-150,,145,100,Pro Open,M,D,Raw,No,,,145,1995
1,Oleksandr Lisovskiy #1,Олександр Лісовський,1990-01-17,103.9,,,,,,,,,280,-300,-300,,280,110,Pro Open,M,D,Raw,No,,,280,1990
2,Viktor Melnik,Віктор Мельник,1994-08-16,108.5,,,,,,,,,230,-260,-260,,230,110,Pro Open,M,D,Raw,No,,,230,1994
3,Oleksandr Kisilchuk,Олександр Кисільчук,1993-08-17,101,,,,,,,,,165,175,-182.5,,175,110,Pro Open,M,D,Raw,No,,,175,1993
1,Pavlo Semkovich,Павло Семкович,1980-05-12,88.2,,,,,,,,,220,230,-240,,230,90,Pro Masters 40-44,M,D,Raw,No,,,230,1980
2,Viktor Ustimchuk,Віктор Устимчук,1977-06-19,89,,,,,,,,,180,195,200,,200,90,Pro Masters 40-44,M,D,Raw,No,,,200,1977
1,Vitaliy Filonenko,Віталій Філоненко,1964-05-18,104.25,,,,,,,,,185,202.5,207.5,,207.5,110,Pro Masters 55-59,M,D,Raw,No,,,207.5,1964
1,Vitaliy Filonenko,Віталій Філоненко,1964-05-18,104.25,,,,,,,,,185,202.5,207.5,,207.5,110,Pro Military/Fire/Police,M,D,Raw,No,,,207.5,1964
1,Karina Khanagyan,Каріна Ханагян,1997-07-06,59.5,,,,,,,,,120,130,140,,140,60,Pro Juniors 20-23,F,D,Raw,No,,,140,1997
1,Katerina Pekarska,Катерина Пекарська,1993-06-06,51.7,,,,,,,,,100,105,110,-115,110,52,Pro Open,F,D,Raw,No,,,110,1993
1,Karina Khanagyan,Каріна Ханагян,1997-07-06,59.5,,,,,,,,,120,130,140,,140,60,Pro Open,F,D,Raw,No,,,140,1997
2,Tetyana Kosharuk,Тетяна Кошарук,1976-12-02,59.7,,,,,,,,,117.5,125,132.5,,132.5,60,Pro Open,F,D,Raw,No,,,132.5,1976
1,Svitlana Oleksin,Світлана Олексин,1986-04-29,66.4,,,,,,,,,100,110,-117.5,,110,67.5,Pro Open,F,D,Raw,No,,,110,1986
1,Liliya Karpenko,Лілія Карпенко,1990-11-30,68.45,,,,,,,,,125,135,145,,145,75,Pro Open,F,D,Raw,No,,,145,1990
1,Olena Chiruk,Олена Чирук,1984-01-28,55.8,,,,,,,,,110,117.5,120,,120,56,Pro Submasters 33-39,F,D,Raw,No,,,120,1984
1,Svitlana Oleksin,Світлана Олексин,1986-04-29,66.4,,,,,,,,,100,110,-117.5,,110,67.5,Pro Submasters 33-39,F,D,Raw,No,,,110,1986
1,Tetyana Kosharuk,Тетяна Кошарук,1976-12-02,59.7,,,,,,,,,117.5,125,132.5,,132.5,60,Pro Masters 40-44,F,D,Raw,No,,,132.5,1976
1,Bogdan Ilyuchenko,Богдан Ілюченко,2004-03-14,90.25,,,,,,,,,110,120,127.5,,127.5,100,Pro Teen 16-17,M,D,Raw,No,,,127.5,2004
1,Sergiy Denisevich,Сергій Денисевич,1994-09-13,65.5,,,,,,,,,180,202.5,210,,210,67.5,Pro Open,M,D,Raw,No,,,210,1994
1,Dmitro Korostelov,Дмитро Коростельов,1991-01-11,73.75,,,,,,,,,110,120,135,,135,75,Pro Open,M,D,Raw,No,,,135,1991
1,Oleksandr Burda,Олександр Бурда,1988-08-17,99.7,,,,,,,,,300,-320,-320,,300,100,Pro Open,M,D,Raw,No,,,300,1988
2,Mikola Tishuk,Микола Тишук,1992-03-12,95.35,,,,,,,,,240,255,270,,270,100,Pro Open,M,D,Raw,No,,,270,1992
3,Viktor Rublyov,Віктор Рубльов,1975-10-26,98.6,,,,,,,,,230,240,-250,,240,100,Pro Open,M,D,Raw,No,,,240,1975
4,Andriy Levitskiy,Андрій Левицький,1988-06-04,91.4,,,,,,,,,100,,,,100,100,Pro Open,M,D,Raw,No,,,100,1988
1,Artur Maslovets,Артур Масловець,1988-09-29,108,,,,,,,,,200,240,-265,,240,110,Pro Open,M,D,Raw,No,,,240,1988
2,Vadim Omelchuk,Вадим Омельчук,1989-09-16,104,,,,,,,,,150,165,175,,175,110,Pro Open,M,D,Raw,No,,,175,1989
1,Viktor Boyarskiy,Віктор Боярський,1981-10-19,68.55,,,,,,,,,110,120,125,,125,75,Pro Submasters 33-39,M,D,Raw,No,,,125,1981
1,Viktor Rublyov,Віктор Рубльов,1975-10-26,98.6,,,,,,,,,230,240,-250,,240,100,Pro Masters 40-44,M,D,Raw,No,,,240,1975
1,Stanislav Gurza,Станіслав Гурза,1992-09-05,89.2,,,,,,,,,160,190,-217.5,,190,90,Pro Military/Fire/Police,M,D,Raw,No,,,190,1992
1,Mikola Tishuk,Микола Тишук,1992-03-12,95.35,,,,,,,,,240,255,270,,270,100,Pro Military/Fire/Police,M,D,Raw,No,,,270,1992
2,Andriy Levitskiy,Андрій Левицький,1988-06-04,91.4,,,,,,,,,100,,,,100,100,Pro Military/Fire/Police,M,D,Raw,No,,,100,1988
1,Yuliya Tsimbalyuk,Юлія Цимбалюк,1986-08-12,57.65,,,,,,,,,80,90,95,,95,60,Pro Open,F,D,Raw,No,,,95,1986
2,Tetyana Polyakova,Тетяна Полякова,1987-08-06,57.65,,,,,,,,,50,-60,65,,65,60,Pro Open,F,D,Raw,No,,,65,1987
1,Nataliya Tuzhik,Наталія Тужик,1993-09-08,69.8,,,,,,,,,50,62.5,75,,75,75,Pro Open,F,D,Raw,No,,,75,1993
1,Yuliya Tsimbalyuk,Юлія Цимбалюк,1986-08-12,57.65,,,,,,,,,80,90,95,,95,60,Pro Submasters 33-39,F,D,Raw,No,,,95,1986
1,Olga Zhuk,Ольга Жук,1975-01-21,101.2,,,,,,,,,70,80,95,,95,100+,Pro Masters 45-49,F,D,Raw,No,,,95,1975
1,Evgen Cherevatiy,Євген Череватий,1988-08-27,94.65,,,,,,,,,270,285,-295,,285,100,Pro Open,M,D,Multi-ply,No,,,285,1988
1,Yuriy Maligin,Юрій Малигін,1967-06-30,96.4,,,,,,,,,100,130,155,,155,100,Pro Masters 50-54,M,D,Multi-ply,No,,,155,1967
