Place,Sex,Name,CyrillicName,BodyweightKg,Squat1Kg,Squat2Kg,Squat3Kg,Best3SquatKg,Squat4Kg,Bench1Kg,Bench2Kg,Bench3Kg,Best3BenchKg,Bench4Kg,Deadlift1Kg,Deadlift2Kg,Deadlift3Kg,Best3DeadliftKg,Deadlift4Kg,TotalKg,WeightClassKg,Event,Equipment,Tested,Division,Age,BirthDate
1,M,Mikhail Kupriyanov,Михаил Куприянов,88,175,190,197.5,197.5,,120,130,135,135,,190,205,215,215,,547.5,90,SBD,Raw,Yes,Open,32,1985-11-20
1,F,Mileana Regushevskaya,Милеана Регушевская,71.1,145,155,160,160,,75,77.5,80,80,,167.5,175,180,180,,420,75,SBD,Raw,No,Juniors 20-23,22,1995-08-23
1,F,Mileana Regushevskaya,Милеана Регушевская,71.1,145,155,160,160,,75,77.5,80,80,,167.5,175,180,180,,420,75,SBD,Raw,No,Open,22,1995-08-23
DQ,M,Kirill Korotich,Кирилл Коротич,74.2,-195,-195,-195,,,,,,,,,,,,,,75,SBD,Raw,No,Juniors 20-23,21,1997-08-15
DQ,M,Kirill Korotich,Кирилл Коротич,74.2,-195,-195,-195,,,,,,,,,,,,,,75,SBD,Raw,No,Open,21,1997-08-15
1,M,Vitaliy Dutchak,Виталий Дутчак,89.5,190,200,-210,200,,90,-100,-100,90,,190,-200,-200,190,,480,90,SBD,Wraps,Yes,Open,32,1985-08-26
1,M,Ruslan Bandurovskiy,Руслан Бандуровский,108.5,225,-240,-250,225,,145,152.5,-157.5,152.5,,-225,-235,235,235,,612.5,110,SBD,Wraps,Yes,Open,36,1982-07-29
DQ,F,Lyudmila Khromenkova,Людмила Хроменкова,57.3,95,105,-115,105,,55,60,-65,60,,-140,-140,-140,,,,60,SBD,Wraps,No,Masters 55-59,56,1961-09-20
1,M,Sergey Pronichkin,Сергей Проничкин,60,,,,,,120,125,-127.5,125,,,,,,,125,60,B,Raw,Yes,Open,29,1989-08-15
1,M,Aleksey Yushin,Алексей Юшин,73.4,,,,,,140,-145,145,145,,,,,,,145,75,B,Raw,Yes,Open,35,1982-10-09
1,M,Matvey Sidorov,Матвей Сидоров,99.6,,,,,,155,-162.5,-162.5,155,,,,,,,155,100,B,Raw,Yes,Teen 16-17,17,2001-04-17
1,M,Georgiy Sasania,Георгий Сасаниа,98.6,,,,,,200,-205,-205,200,,,,,,,200,100,B,Raw,Yes,Open,25,1993-02-14
2,M,Matvey Sidorov,Матвей Сидоров,99.6,,,,,,155,-162.5,-162.5,155,,,,,,,155,100,B,Raw,Yes,Open,17,2001-04-17
1,M,Kirill Korotich,Кирилл Коротич,74.2,,,,,,110,-120,-120,110,,,,,,,110,75,B,Raw,No,Juniors 20-23,21,1997-08-15
1,M,Kirill Korotich,Кирилл Коротич,74.2,,,,,,110,-120,-120,110,,,,,,,110,75,B,Raw,No,Open,21,1997-08-15
1,M,Andrey Khabarov,Андрей Хабаров,88.3,,,,,,155,175,-180,175,,,,,,,175,90,B,Raw,No,Juniors 20-23,22,1996-08-06
1,M,Aleksey Kobzar,Алексей Кобзарь,98.6,,,,,,185,192.5,201,201,,,,,,,201,100,B,Raw,No,Open,23,1995-03-19
1,M,Aleksey Khromenkov,Алексей Хроменков,98.5,,,,,,105,115,125,125,,,,,,,125,100,B,Raw,No,Masters 60-64,60,1957-10-02
1,M,Vladimir Goretskiy,Владимир Горецкий,115.8,,,,,,120,140,-160,140,,,,,,,140,125,B,Raw,No,Juniors 20-23,20,1998-07-21
DQ,M,Dmitriy Senchenko,Дмитрий Сенченко,99,,,,,,-200,-200,-200,,,,,,,,,100,B,Raw,No,Open,37,1981-03-07
1,F,Sultanie Abibulaeva,Султание Абибулаева,59.5,,,,,,20,25,-30,25,,,,,,,25,60,B,Raw,No,Teen 18-19,18,2000-06-27
1,M,Niyas Izmaylov,Ніяс Ізмайлов,64.7,,,,,,90,100,-105,100,,,,,,,100,67.5,B,Raw,No,Open,31,1986-11-20
1,M,Dmitriy Vavrovich,Дмитрий Ваврович,93.5,,,,,,62.5,65,-70,65,,,,,,,65,100,B,Raw,No,Open,38,1980-05-01
1,M,Konstantin Makarenko,Константин Макаренко,103.1,,,,,,100,110,115,115,,,,,,,115,110,B,Raw,No,Open,45,1973-02-03
1,M,Vitaliy Dutchak,Виталий Дутчак,89.5,190,200,-210,200,,,,,,,,,,,,200,90,S,Wraps,Yes,Open,32,1985-08-26
DQ,M,Kirill Korotich,Кирилл Коротич,74.2,-195,-195,-195,,,,,,,,,,,,,,75,S,Raw,No,Juniors 20-23,21,1997-08-15
DQ,M,Kirill Korotich,Кирилл Коротич,74.2,-195,-195,-195,,,,,,,,,,,,,,75,S,Raw,No,Open,21,1997-08-15
1,M,Aleksey Kotov,Алексей Котов,74.9,,,,,,,,,,,210,220,-230,220,,220,75,D,Raw,Yes,Open,30,1987-09-19
1,M,Vitaliy Dutchak,Виталий Дутчак,89.5,,,,,,,,,,,190,-200,-200,190,,190,90,D,Raw,Yes,Open,32,1985-08-26
1,F,Mileana Regushevskaya,Милеана Регушевская,71.1,,,,,,,,,,,167.5,175,180,180,,180,75,D,Raw,No,Juniors 20-23,22,1995-08-23
1,F,Mileana Regushevskaya,Милеана Регушевская,71.1,,,,,,,,,,,167.5,175,180,180,,180,75,D,Raw,No,Open,22,1995-08-23
1,M,Kirill Korotich,Кирилл Коротич,74.2,,,,,,,,,,,190,202.5,212.5,212.5,,212.5,75,D,Raw,No,Juniors 20-23,21,1997-08-15
1,M,Kirill Korotich,Кирилл Коротич,74.2,,,,,,,,,,,190,202.5,212.5,212.5,,212.5,75,D,Raw,No,Open,21,1997-08-15
1,M,Ivan Parasotchenko,Иван Парасотченко,97,,,,,,,,,,,255,-265,-265,255,,255,100,D,Raw,No,Open,34,1984-08-08
